%!PS-Adobe-3.0 EPSF-3.0
%%HiResBoundingBox: 0 0 2267.718 1116.85
%%BoundingBox: 0 0 2268 1117
%%Creator: Serif Affinity
%LanguageLevel: 3
%%DocumentData: Clean7Bit
%ADO_ContainsXMP: MainFirst
%%EndComments
%%BeginProlog
101 dict begin
/m/moveto
/l/lineto
/c/curveto
3{load def}repeat
%%EndProlog
/currentdistillerparams where
{pop currentdistillerparams /CoreDistVersion get 5000 lt} {true} ifelse
{userdict /EPSHandler1_pdfmark /cleartomark load put
userdict /EPSHandler1_ReadMetadata_pdfmark {flushfile cleartomark} bind put}
{ userdict /EPSHandler1_pdfmark /pdfmark load put
userdict /EPSHandler1_ReadMetadata_pdfmark {/PUT pdfmark} bind put } ifelse
[/NamespacePush EPSHandler1_pdfmark
[/_objdef {eps_metadata_stream} /type /stream /OBJ EPSHandler1_pdfmark
[{eps_metadata_stream} 2 dict begin
/Type /Metadata def /Subtype /XML def currentdict end /PUT EPSHandler1_pdfmark
[{eps_metadata_stream}
currentfile 0 (% &&end EPS XMP packet marker&&)
/SubFileDecode filter EPSHandler1_ReadMetadata_pdfmark
<?xpacket begin="﻿" id="W5M0MpCehiHzreSzNTczkc9d"?>
<x:xmpmeta xmlns:x="adobe:ns:meta/" x:xmptk="XMP Core 5.5.0">
 <rdf:RDF xmlns:rdf="http://www.w3.org/1999/02/22-rdf-syntax-ns#">
  <rdf:Description rdf:about=""
    xmlns:exif="http://ns.adobe.com/exif/1.0/"
    xmlns:tiff="http://ns.adobe.com/tiff/1.0/"
    xmlns:xmp="http://ns.adobe.com/xap/1.0/"
    xmlns:xmpMM="http://ns.adobe.com/xap/1.0/mm/"
    xmlns:stEvt="http://ns.adobe.com/xap/1.0/sType/ResourceEvent#"
   exif:PixelXDimension="2267.718"
   exif:PixelYDimension="1116.85"
   tiff:ImageWidth="2267.718"
   tiff:ImageLength="1116.85"
   tiff:ResolutionUnit="2"
   tiff:XResolution="72.0"
   tiff:YResolution="72.0"
   xmp:ModifyDate="2019-06-08T14:10:58+02:00"
   xmp:MetadataDate="2019-06-08T14:10:58+02:00">
   <xmpMM:History>
    <rdf:Seq>
     <rdf:li
      stEvt:action="produced"
      stEvt:softwareAgent="Affinity Designer (May 30 2019)"
      stEvt:when="2019-06-08T14:10:58+02:00"/>
    </rdf:Seq>
   </xmpMM:History>
  </rdf:Description>
 </rdf:RDF>
</x:xmpmeta>
                                                                                                    
                                                                                                    
                                                                                                    
                                                                                                    
                                                                                                    
                                                                                                    
                                                                                                    
                                                                                                    
                                                                                                    
                                                                                                    
                                                                                                    
                                                                                                    
                                                                                                    
                                                                                                    
                                                                                                    
                                                                                                    
                                                                                                    
                                                                                                    
                                                                                                    
                                                                                                    
                           
<?xpacket end="w"?>
% &&end EPS XMP packet marker&&
[/Document
1 dict begin /Metadata {eps_metadata_stream} def
currentdict end /BDC EPSHandler1_pdfmark
[/NamespacePop EPSHandler1_pdfmark

gsave
 
 % Design Template
  
  % rect21823
    newpath
    2267.717 1116.85 m
    2267.717 1116.85 0 1116.85 0 1116.85 c
    0 1116.85 0 0 0 0 c
    0 0 2267.717 0 2267.717 0 c
    2267.717 0 2267.717 1116.85 2267.717 1116.85 c
    closepath
    /DeviceRGB setcolorspace
    0.965 0.573 0.118 setcolor
    eofill
  
  % rect21825
    2254.543 1102.677 m
    2254.543 1102.677 15.173 1102.677 15.173 1102.677 c
    15.173 1102.677 15.173 14.173 15.173 14.173 c
    15.173 14.173 2254.543 14.173 2254.543 14.173 c
    2254.543 14.173 2254.543 1102.677 2254.543 1102.677 c
    closepath
    /DeviceRGB setcolorspace
    1 1 1 setcolor
    eofill
  
  % bottom_outsideCutPath
    2083.885 1072.539 m
    2083.885 1072.539 2016.562 1072.539 2016.562 1072.539 c
    2016.562 1072.539 2016.562 1086.712 2016.562 1086.712 c
    2016.562 1086.712 1941.09 1086.712 1941.09 1086.712 c
    1941.09 1086.712 1941.09 1074.665 1941.09 1074.665 c
    1941.09 1074.665 1935.066 1074.665 1935.066 1074.665 c
    1935.066 1074.665 1929.043 1074.665 1929.043 1074.665 c
    1929.043 1074.665 1929.043 1086.712 1929.043 1086.712 c
    1929.043 1086.712 1853.57 1086.712 1853.57 1086.712 c
    1853.57 1086.712 1853.57 1072.539 1853.57 1072.539 c
    1853.57 1072.539 1786.247 1072.539 1786.247 1072.539 c
    1786.247 1072.539 1786.247 934.35 1786.247 934.35 c
    1786.247 934.35 1772.074 934.35 1772.074 934.35 c
    1772.074 934.35 1772.074 788.012 1772.074 788.012 c
    1772.074 788.012 1784.122 788.012 1784.122 788.012 c
    1784.122 788.012 1784.122 781.988 1784.122 781.988 c
    1784.122 781.988 1784.122 775.964 1784.122 775.964 c
    1784.122 775.964 1772.074 775.964 1772.074 775.964 c
    1772.074 775.964 1772.074 629.626 1772.074 629.626 c
    1772.074 629.626 1786.247 629.626 1786.247 629.626 c
    1786.247 629.626 1786.247 491.437 1786.247 491.437 c
    1786.247 491.437 1853.57 491.437 1853.57 491.437 c
    1853.57 491.437 1853.57 477.264 1853.57 477.264 c
    1853.57 477.264 1929.043 477.264 1929.043 477.264 c
    1929.043 477.264 1929.043 489.311 1929.043 489.311 c
    1941.09 489.311 l
    1941.09 489.311 1941.09 477.264 1941.09 477.264 c
    1941.09 477.264 2016.562 477.264 2016.562 477.264 c
    2016.562 477.264 2016.562 491.437 2016.562 491.437 c
    2016.562 491.437 2083.885 491.437 2083.885 491.437 c
    2083.885 491.437 2083.885 629.626 2083.885 629.626 c
    2083.885 629.626 2098.059 629.626 2098.059 629.626 c
    2098.059 629.626 2098.059 775.964 2098.059 775.964 c
    2098.059 775.964 2086.011 775.964 2086.011 775.964 c
    2086.011 788.012 l
    2086.011 788.012 2098.059 788.012 2098.059 788.012 c
    2098.059 788.012 2098.059 934.35 2098.059 934.35 c
    2098.059 934.35 2083.885 934.35 2083.885 934.35 c
    2083.885 934.35 2083.885 1072.539 2083.885 1072.539 c
    closepath
    /DeviceRGB setcolorspace
    0 0 1 setcolor
    0.1 setlinewidth
    1 setlinecap
    0 setlinejoin
    4 setmiterlimit
    [] 0 setdash
    stroke
  
  % g21921
  
  % g22067
  
  % g22281
  
  % g22515
  
  % g22605
  
  % g22735
  
  % g22753
  
  % g22771
  
  % g22811
  
  % g22849
  
  % g22875
  
  % g22893
  
  % g22911
  
  % g22923
  
  % g22941
  
  % g22959
  
  % g22973
  
  % g22995
  
  % g23013
  
  % g23025
  
  % g23037
  
  % g23051
  
  % g23063
  
  % g23077
  
  % g23121
  
  % g23139
  
  % g23165
  
  % g23185
  
  % g23265
  
  % g56055
  
  % g7599
  
  % back_outsideCutPath
    1749.449 1088.761 m
    1749.449 1088.761 1607.717 1088.761 1607.717 1088.761 c
    1607.717 1088.761 1607.717 1074.587 1607.717 1074.587 c
    1607.717 1074.587 1472.008 1074.587 1472.008 1074.587 c
    1472.008 1074.587 1472.008 1050.918 1472.008 1050.918 c
    1472.008 1050.918 1476.26 1050.918 1476.26 1050.918 c
    1476.26 1050.918 1476.26 1041.139 1476.26 1041.139 c
    1476.26 1041.139 1472.008 1041.139 1472.008 1041.139 c
    1472.008 1041.139 1472.008 1031.359 1472.008 1031.359 c
    1472.008 1031.359 1459.961 1031.359 1459.961 1031.359 c
    1459.961 1031.359 1459.961 1041.139 1459.961 1041.139 c
    1459.961 1041.139 1455.709 1041.139 1455.709 1041.139 c
    1455.709 1041.139 1455.709 1050.918 1455.709 1050.918 c
    1455.709 1050.918 1459.961 1050.918 1459.961 1050.918 c
    1459.961 1050.918 1459.961 1074.587 1459.961 1074.587 c
    1459.961 1074.587 1324.252 1074.587 1324.252 1074.587 c
    1324.252 1074.587 1324.252 1088.761 1324.252 1088.761 c
    1324.252 1088.761 1040.787 1088.761 1040.787 1088.761 c
    1040.787 1088.761 1040.787 1074.587 1040.787 1074.587 c
    1040.787 1074.587 905.079 1074.587 905.079 1074.587 c
    905.079 1074.587 905.079 1050.918 905.079 1050.918 c
    905.079 1050.918 909.331 1050.918 909.331 1050.918 c
    909.331 1050.918 909.331 1041.139 909.331 1041.139 c
    909.331 1041.139 905.079 1041.139 905.079 1041.139 c
    905.079 1041.139 905.079 1031.359 905.079 1031.359 c
    905.079 1031.359 893.031 1031.359 893.031 1031.359 c
    893.031 1031.359 893.031 1041.139 893.031 1041.139 c
    893.031 1041.139 888.78 1041.139 888.78 1041.139 c
    888.78 1041.139 888.78 1050.918 888.78 1050.918 c
    888.78 1050.918 893.031 1050.918 893.031 1050.918 c
    893.031 1050.918 893.031 1074.587 893.031 1074.587 c
    893.031 1074.587 757.323 1074.587 757.323 1074.587 c
    757.323 1074.587 757.323 1088.761 757.323 1088.761 c
    757.323 1088.761 473.858 1088.761 473.858 1088.761 c
    473.858 1088.761 473.858 1074.587 473.858 1074.587 c
    473.858 1074.587 338.15 1074.587 338.15 1074.587 c
    338.15 1074.587 338.15 1050.918 338.15 1050.918 c
    338.15 1050.918 342.402 1050.918 342.402 1050.918 c
    342.402 1050.918 342.402 1041.139 342.402 1041.139 c
    342.402 1041.139 338.15 1041.139 338.15 1041.139 c
    338.15 1041.139 338.15 1031.359 338.15 1031.359 c
    338.15 1031.359 326.102 1031.359 326.102 1031.359 c
    326.102 1031.359 326.102 1041.139 326.102 1041.139 c
    326.102 1041.139 321.85 1041.139 321.85 1041.139 c
    321.85 1041.139 321.85 1050.918 321.85 1050.918 c
    321.85 1050.918 326.102 1050.918 326.102 1050.918 c
    326.102 1050.918 326.102 1074.587 326.102 1074.587 c
    326.102 1074.587 190.394 1074.587 190.394 1074.587 c
    190.394 1074.587 190.394 1088.761 190.394 1088.761 c
    190.394 1088.761 48.661 1088.761 48.661 1088.761 c
    48.661 1088.761 48.661 1037.972 48.661 1037.972 c
    48.661 1037.972 62.835 1037.972 62.835 1037.972 c
    62.835 1037.972 62.835 993.21 62.835 993.21 c
    62.835 993.21 86.504 993.21 86.504 993.21 c
    86.504 993.21 86.504 997.462 86.504 997.462 c
    86.504 997.462 96.283 997.462 96.283 997.462 c
    96.283 997.462 96.283 993.21 96.283 993.21 c
    96.283 993.21 106.063 993.21 106.063 993.21 c
    106.063 993.21 106.063 981.163 106.063 981.163 c
    106.063 981.163 96.283 981.163 96.283 981.163 c
    96.283 981.163 96.283 976.911 96.283 976.911 c
    96.283 976.911 86.504 976.911 86.504 976.911 c
    86.504 976.911 86.504 981.163 86.504 981.163 c
    86.504 981.163 62.835 981.163 62.835 981.163 c
    62.835 981.163 62.835 936.398 62.835 936.398 c
    62.835 936.398 48.661 936.398 48.661 936.398 c
    48.661 936.398 48.661 834.825 48.661 834.825 c
    48.661 834.825 62.835 834.825 62.835 834.825 c
    62.835 834.825 62.835 790.06 62.835 790.06 c
    62.835 790.06 86.504 790.06 86.504 790.06 c
    86.504 790.06 86.504 794.312 86.504 794.312 c
    86.504 794.312 96.283 794.312 96.283 794.312 c
    96.283 794.312 96.283 790.06 96.283 790.06 c
    96.283 790.06 106.063 790.06 106.063 790.06 c
    106.063 790.06 106.063 778.013 106.063 778.013 c
    106.063 778.013 96.283 778.013 96.283 778.013 c
    96.283 778.013 96.283 773.761 96.283 773.761 c
    96.283 773.761 86.504 773.761 86.504 773.761 c
    86.504 773.761 86.504 778.013 86.504 778.013 c
    86.504 778.013 62.835 778.013 62.835 778.013 c
    62.835 778.013 62.835 733.248 62.835 733.248 c
    62.835 733.248 48.661 733.248 48.661 733.248 c
    48.661 733.248 48.661 631.674 48.661 631.674 c
    48.661 631.674 62.835 631.674 62.835 631.674 c
    62.835 631.674 62.835 586.909 62.835 586.909 c
    62.835 586.909 86.504 586.909 86.504 586.909 c
    86.504 586.909 86.504 591.161 86.504 591.161 c
    86.504 591.161 96.283 591.161 96.283 591.161 c
    96.283 591.161 96.283 586.909 96.283 586.909 c
    96.283 586.909 106.063 586.909 106.063 586.909 c
    106.063 586.909 106.063 574.862 106.063 574.862 c
    106.063 574.862 96.283 574.862 96.283 574.862 c
    96.283 574.862 96.283 570.61 96.283 570.61 c
    96.283 570.61 86.504 570.61 86.504 570.61 c
    86.504 570.61 86.504 574.862 86.504 574.862 c
    86.504 574.862 62.835 574.862 62.835 574.862 c
    62.835 574.862 62.835 530.1 62.835 530.1 c
    62.835 530.1 48.661 530.1 48.661 530.1 c
    48.661 530.1 48.661 479.312 48.661 479.312 c
    48.661 479.312 190.394 479.312 190.394 479.312 c
    190.394 479.312 190.394 493.485 190.394 493.485 c
    190.394 493.485 326.102 493.485 326.102 493.485 c
    326.102 493.485 326.102 517.154 326.102 517.154 c
    326.102 517.154 321.85 517.154 321.85 517.154 c
    321.85 517.154 321.85 526.934 321.85 526.934 c
    321.85 526.934 326.102 526.934 326.102 526.934 c
    326.102 526.934 326.102 536.713 326.102 536.713 c
    326.102 536.713 338.15 536.713 338.15 536.713 c
    338.15 536.713 338.15 526.934 338.15 526.934 c
    338.15 526.934 342.402 526.934 342.402 526.934 c
    342.402 526.934 342.402 517.154 342.402 517.154 c
    342.402 517.154 338.15 517.154 338.15 517.154 c
    338.15 517.154 338.15 493.485 338.15 493.485 c
    338.15 493.485 473.858 493.485 473.858 493.485 c
    473.858 493.485 473.858 479.312 473.858 479.312 c
    473.858 479.312 757.323 479.312 757.323 479.312 c
    757.323 479.312 757.323 493.485 757.323 493.485 c
    757.323 493.485 893.031 493.485 893.031 493.485 c
    893.031 493.485 893.031 517.154 893.031 517.154 c
    893.031 517.154 888.78 517.154 888.78 517.154 c
    888.78 517.154 888.78 526.934 888.78 526.934 c
    888.78 526.934 893.031 526.934 893.031 526.934 c
    893.031 526.934 893.031 536.713 893.031 536.713 c
    893.031 536.713 905.079 536.713 905.079 536.713 c
    905.079 536.713 905.079 526.934 905.079 526.934 c
    905.079 526.934 909.331 526.934 909.331 526.934 c
    909.331 526.934 909.331 517.154 909.331 517.154 c
    909.331 517.154 905.079 517.154 905.079 517.154 c
    905.079 517.154 905.079 493.485 905.079 493.485 c
    905.079 493.485 1040.787 493.485 1040.787 493.485 c
    1040.787 493.485 1040.787 479.312 1040.787 479.312 c
    1040.787 479.312 1324.252 479.312 1324.252 479.312 c
    1324.252 479.312 1324.252 493.485 1324.252 493.485 c
    1324.252 493.485 1459.961 493.485 1459.961 493.485 c
    1459.961 493.485 1459.961 517.154 1459.961 517.154 c
    1459.961 517.154 1455.709 517.154 1455.709 517.154 c
    1455.709 517.154 1455.709 526.934 1455.709 526.934 c
    1455.709 526.934 1459.961 526.934 1459.961 526.934 c
    1459.961 526.934 1459.961 536.713 1459.961 536.713 c
    1459.961 536.713 1472.008 536.713 1472.008 536.713 c
    1472.008 536.713 1472.008 526.934 1472.008 526.934 c
    1472.008 526.934 1476.26 526.934 1476.26 526.934 c
    1476.26 526.934 1476.26 517.154 1476.26 517.154 c
    1476.26 517.154 1472.008 517.154 1472.008 517.154 c
    1472.008 517.154 1472.008 493.485 1472.008 493.485 c
    1472.008 493.485 1607.717 493.485 1607.717 493.485 c
    1607.717 493.485 1607.717 479.312 1607.717 479.312 c
    1607.717 479.312 1749.449 479.312 1749.449 479.312 c
    1749.449 479.312 1749.449 530.1 1749.449 530.1 c
    1749.449 530.1 1735.276 530.1 1735.276 530.1 c
    1735.276 530.1 1735.276 574.862 1735.276 574.862 c
    1735.276 574.862 1711.606 574.862 1711.606 574.862 c
    1711.606 574.862 1711.606 570.61 1711.606 570.61 c
    1711.606 570.61 1701.827 570.61 1701.827 570.61 c
    1701.827 570.61 1701.827 574.862 1701.827 574.862 c
    1701.827 574.862 1692.047 574.862 1692.047 574.862 c
    1692.047 574.862 1692.047 586.909 1692.047 586.909 c
    1692.047 586.909 1701.827 586.909 1701.827 586.909 c
    1701.827 586.909 1701.827 591.161 1701.827 591.161 c
    1701.827 591.161 1711.606 591.161 1711.606 591.161 c
    1711.606 591.161 1711.606 586.909 1711.606 586.909 c
    1711.606 586.909 1735.276 586.909 1735.276 586.909 c
    1735.276 586.909 1735.276 631.674 1735.276 631.674 c
    1735.276 631.674 1749.449 631.674 1749.449 631.674 c
    1749.449 631.674 1749.449 733.248 1749.449 733.248 c
    1749.449 733.248 1735.276 733.248 1735.276 733.248 c
    1735.276 733.248 1735.276 778.013 1735.276 778.013 c
    1735.276 778.013 1711.606 778.013 1711.606 778.013 c
    1711.606 778.013 1711.606 773.761 1711.606 773.761 c
    1711.606 773.761 1701.827 773.761 1701.827 773.761 c
    1701.827 773.761 1701.827 778.013 1701.827 778.013 c
    1701.827 778.013 1692.047 778.013 1692.047 778.013 c
    1692.047 778.013 1692.047 790.06 1692.047 790.06 c
    1692.047 790.06 1701.827 790.06 1701.827 790.06 c
    1701.827 790.06 1701.827 794.312 1701.827 794.312 c
    1701.827 794.312 1711.606 794.312 1711.606 794.312 c
    1711.606 794.312 1711.606 790.06 1711.606 790.06 c
    1711.606 790.06 1735.276 790.06 1735.276 790.06 c
    1735.276 790.06 1735.276 834.825 1735.276 834.825 c
    1735.276 834.825 1749.449 834.825 1749.449 834.825 c
    1749.449 834.825 1749.449 936.398 1749.449 936.398 c
    1749.449 936.398 1735.276 936.398 1735.276 936.398 c
    1735.276 936.398 1735.276 981.163 1735.276 981.163 c
    1735.276 981.163 1711.606 981.163 1711.606 981.163 c
    1711.606 981.163 1711.606 976.911 1711.606 976.911 c
    1711.606 976.911 1701.827 976.911 1701.827 976.911 c
    1701.827 976.911 1701.827 981.163 1701.827 981.163 c
    1701.827 981.163 1692.047 981.163 1692.047 981.163 c
    1692.047 981.163 1692.047 993.21 1692.047 993.21 c
    1692.047 993.21 1701.827 993.21 1701.827 993.21 c
    1701.827 993.21 1701.827 997.462 1701.827 997.462 c
    1701.827 997.462 1711.606 997.462 1711.606 997.462 c
    1711.606 997.462 1711.606 993.21 1711.606 993.21 c
    1711.606 993.21 1735.276 993.21 1735.276 993.21 c
    1735.276 993.21 1735.276 1037.972 1735.276 1037.972 c
    1735.276 1037.972 1749.449 1037.972 1749.449 1037.972 c
    1749.449 1037.972 1749.449 1088.761 1749.449 1088.761 c
    closepath
    /DeviceRGB setcolorspace
    0 0 1 setcolor
    0.1 setlinewidth
    1 setlinecap
    0 setlinejoin
    4 setmiterlimit
    [] 0 setdash
    stroke
  
  % Kurve
    1731.443 43.392 m
    1731.443 43.392 30.656 112.392 30.656 112.392 c
    30.656 112.392 30.656 27.352 30.656 27.352 c
    30.656 27.352 1731.443 27.352 1731.443 27.352 c
    1731.443 27.352 1731.443 43.392 1731.443 43.392 c
    closepath
    /DeviceRGB setcolorspace
    1 1 1 setcolor
    gsave
     eofill
     grestore
    /DeviceRGB setcolorspace
    0 0 1 setcolor
    0.1 setlinewidth
    1 setlinecap
    1 setlinejoin
    [] 0 setdash
    stroke
  
  % Kurve
    30.656 134.352 m
    30.656 134.352 1731.443 65.352 1731.443 65.352 c
    1731.443 65.352 1731.443 150.392 1731.443 150.392 c
    1731.443 150.392 30.656 150.392 30.656 150.392 c
    30.656 150.392 30.656 134.352 30.656 134.352 c
    closepath
    /DeviceRGB setcolorspace
    1 1 1 setcolor
    gsave
     eofill
     grestore
    /DeviceRGB setcolorspace
    0 0 1 setcolor
    0.1 setlinewidth
    1 setlinecap
    1 setlinejoin
    [] 0 setdash
    stroke
  
  % Kurve
    1745.443 360.392 m
    1745.443 360.392 44.656 429.392 44.656 429.392 c
    44.656 429.392 44.656 344.352 44.656 344.352 c
    44.656 344.352 1745.443 344.352 1745.443 344.352 c
    1745.443 344.352 1745.443 360.392 1745.443 360.392 c
    closepath
    /DeviceRGB setcolorspace
    1 1 1 setcolor
    gsave
     eofill
     grestore
    /DeviceRGB setcolorspace
    0 0 1 setcolor
    0.1 setlinewidth
    1 setlinecap
    1 setlinejoin
    [] 0 setdash
    stroke
  
  % Kurve
    45.656 448.352 m
    45.656 448.352 1746.443 379.352 1746.443 379.352 c
    1746.443 379.352 1746.443 464.392 1746.443 464.392 c
    1746.443 464.392 45.656 464.392 45.656 464.392 c
    45.656 464.392 45.656 448.352 45.656 448.352 c
    closepath
    /DeviceRGB setcolorspace
    1 1 1 setcolor
    gsave
     eofill
     grestore
    /DeviceRGB setcolorspace
    0 0 1 setcolor
    0.1 setlinewidth
    1 setlinecap
    1 setlinejoin
    [] 0 setdash
    stroke
  
  % left_outsideCutPath
    1786.247 308.425 m
    1786.247 308.425 1786.247 276.535 1786.247 276.535 c
    1786.247 276.535 1772.074 276.535 1772.074 276.535 c
    1772.074 276.535 1772.074 250.669 1772.074 250.669 c
    1772.074 250.669 1784.122 250.669 1784.122 250.669 c
    1784.122 250.669 1784.122 244.645 1784.122 244.645 c
    1784.122 244.645 1784.122 238.622 1784.122 238.622 c
    1784.122 238.622 1772.074 238.622 1772.074 238.622 c
    1772.074 238.622 1772.074 212.756 1772.074 212.756 c
    1772.074 212.756 1786.247 212.756 1786.247 212.756 c
    1786.247 212.756 1786.247 180.866 1786.247 180.866 c
    1786.247 180.866 1853.57 180.866 1853.57 180.866 c
    1853.57 180.866 1853.57 195.039 1853.57 195.039 c
    1853.57 195.039 1929.043 195.039 1929.043 195.039 c
    1929.043 195.039 1929.043 218.708 1929.043 218.708 c
    1929.043 218.708 1924.791 218.708 1924.791 218.708 c
    1924.791 218.708 1924.791 228.488 1924.791 228.488 c
    1924.791 228.488 1929.043 228.488 1929.043 228.488 c
    1929.043 228.488 1929.043 238.267 1929.043 238.267 c
    1929.043 238.267 1941.09 238.267 1941.09 238.267 c
    1941.09 238.267 1941.09 228.488 1941.09 228.488 c
    1941.09 228.488 1945.342 228.488 1945.342 228.488 c
    1945.342 228.488 1945.342 218.708 1945.342 218.708 c
    1945.342 218.708 1941.09 218.708 1941.09 218.708 c
    1941.09 218.708 1941.09 195.039 1941.09 195.039 c
    1941.09 195.039 2016.562 195.039 2016.562 195.039 c
    2016.562 195.039 2016.562 180.866 2016.562 180.866 c
    2016.562 180.866 2083.885 180.866 2083.885 180.866 c
    2083.885 180.866 2083.885 212.756 2083.885 212.756 c
    2083.885 212.756 2098.059 212.756 2098.059 212.756 c
    2098.059 212.756 2098.059 238.622 2098.059 238.622 c
    2098.059 238.622 2086.011 238.622 2086.011 238.622 c
    2086.011 250.669 l
    2086.011 250.669 2098.059 250.669 2098.059 250.669 c
    2098.059 250.669 2098.059 276.535 2098.059 276.535 c
    2098.059 276.535 2083.885 276.535 2083.885 276.535 c
    2083.885 276.535 2083.885 308.425 2083.885 308.425 c
    2083.885 308.425 1786.247 308.425 1786.247 308.425 c
    closepath
    /DeviceRGB setcolorspace
    0 0 1 setcolor
    0.1 setlinewidth
    1 setlinecap
    0 setlinejoin
    4 setmiterlimit
    [] 0 setdash
    stroke
  
  % right_outsideCutPath
    2083.885 336.929 m
    2083.885 336.929 2083.885 368.819 2083.885 368.819 c
    2083.885 368.819 2098.059 368.819 2098.059 368.819 c
    2098.059 368.819 2098.059 394.685 2098.059 394.685 c
    2098.059 394.685 2086.011 394.685 2086.011 394.685 c
    2086.011 406.732 l
    2086.011 406.732 2098.059 406.732 2098.059 406.732 c
    2098.059 406.732 2098.059 432.598 2098.059 432.598 c
    2098.059 432.598 2083.885 432.598 2083.885 432.598 c
    2083.885 432.598 2083.885 464.488 2083.885 464.488 c
    2083.885 464.488 2016.562 464.488 2016.562 464.488 c
    2016.562 464.488 2016.562 450.315 2016.562 450.315 c
    2016.562 450.315 1941.09 450.315 1941.09 450.315 c
    1941.09 450.315 1941.09 426.645 1941.09 426.645 c
    1941.09 426.645 1945.342 426.645 1945.342 426.645 c
    1945.342 426.645 1945.342 416.866 1945.342 416.866 c
    1945.342 416.866 1941.09 416.866 1941.09 416.866 c
    1941.09 416.866 1941.09 407.086 1941.09 407.086 c
    1941.09 407.086 1929.043 407.086 1929.043 407.086 c
    1929.043 407.086 1929.043 416.866 1929.043 416.866 c
    1929.043 416.866 1924.791 416.866 1924.791 416.866 c
    1924.791 416.866 1924.791 426.645 1924.791 426.645 c
    1924.791 426.645 1929.043 426.645 1929.043 426.645 c
    1929.043 426.645 1929.043 450.315 1929.043 450.315 c
    1929.043 450.315 1853.57 450.315 1853.57 450.315 c
    1853.57 450.315 1853.57 464.488 1853.57 464.488 c
    1853.57 464.488 1786.247 464.488 1786.247 464.488 c
    1786.247 464.488 1786.247 432.598 1786.247 432.598 c
    1786.247 432.598 1772.074 432.598 1772.074 432.598 c
    1772.074 432.598 1772.074 406.732 1772.074 406.732 c
    1772.074 406.732 1784.122 406.732 1784.122 406.732 c
    1784.122 406.732 1784.122 400.708 1784.122 400.708 c
    1784.122 400.708 1784.122 394.685 1784.122 394.685 c
    1784.122 394.685 1772.074 394.685 1772.074 394.685 c
    1772.074 394.685 1772.074 368.819 1772.074 368.819 c
    1772.074 368.819 1786.247 368.819 1786.247 368.819 c
    1786.247 368.819 1786.247 336.929 1786.247 336.929 c
    1786.247 336.929 2083.885 336.929 2083.885 336.929 c
    closepath
    /DeviceRGB setcolorspace
    0 0 1 setcolor
    0.1 setlinewidth
    1 setlinecap
    0 setlinejoin
    4 setmiterlimit
    [] 0 setdash
    stroke
  
  % back_outsideCutPath
    2235.64 1086.712 m
    2235.64 1086.712 2203.75 1086.712 2203.75 1086.712 c
    2203.75 1086.712 2203.75 1072.539 2203.75 1072.539 c
    2203.75 1072.539 2177.884 1072.539 2177.884 1072.539 c
    2177.884 1072.539 2177.884 1048.87 2177.884 1048.87 c
    2177.884 1048.87 2182.136 1048.87 2182.136 1048.87 c
    2182.136 1048.87 2182.136 1039.09 2182.136 1039.09 c
    2182.136 1039.09 2177.884 1039.09 2177.884 1039.09 c
    2177.884 1039.09 2177.884 1029.311 2177.884 1029.311 c
    2177.884 1029.311 2165.837 1029.311 2165.837 1029.311 c
    2165.837 1029.311 2165.837 1039.09 2165.837 1039.09 c
    2165.837 1039.09 2161.585 1039.09 2161.585 1039.09 c
    2161.585 1039.09 2161.585 1048.87 2161.585 1048.87 c
    2161.585 1048.87 2165.837 1048.87 2165.837 1048.87 c
    2165.837 1048.87 2165.837 1072.539 2165.837 1072.539 c
    2165.837 1072.539 2139.971 1072.539 2139.971 1072.539 c
    2139.971 1072.539 2139.971 1086.712 2139.971 1086.712 c
    2139.971 1086.712 2108.081 1086.712 2108.081 1086.712 c
    2108.081 1086.712 2108.081 934.35 2108.081 934.35 c
    2108.081 934.35 2122.254 934.35 2122.254 934.35 c
    2122.254 934.35 2122.254 788.012 2122.254 788.012 c
    2122.254 788.012 2145.923 788.012 2145.923 788.012 c
    2145.923 788.012 2145.923 792.264 2145.923 792.264 c
    2145.923 792.264 2155.703 792.264 2155.703 792.264 c
    2155.703 792.264 2155.703 788.012 2155.703 788.012 c
    2155.703 788.012 2165.483 788.012 2165.483 788.012 c
    2165.483 788.012 2165.483 775.964 2165.483 775.964 c
    2165.483 775.964 2155.703 775.964 2155.703 775.964 c
    2155.703 775.964 2155.703 771.712 2155.703 771.712 c
    2155.703 771.712 2145.923 771.712 2145.923 771.712 c
    2145.923 771.712 2145.923 775.964 2145.923 775.964 c
    2145.923 775.964 2122.254 775.964 2122.254 775.964 c
    2122.254 775.964 2122.254 629.626 2122.254 629.626 c
    2122.254 629.626 2108.081 629.626 2108.081 629.626 c
    2108.081 629.626 2108.081 477.264 2108.081 477.264 c
    2108.081 477.264 2139.971 477.264 2139.971 477.264 c
    2139.971 477.264 2139.971 491.437 2139.971 491.437 c
    2139.971 491.437 2165.837 491.437 2165.837 491.437 c
    2165.837 491.437 2165.837 515.106 2165.837 515.106 c
    2165.837 515.106 2161.585 515.106 2161.585 515.106 c
    2161.585 515.106 2161.585 524.886 2161.585 524.886 c
    2161.585 524.886 2165.837 524.886 2165.837 524.886 c
    2165.837 524.886 2165.837 534.665 2165.837 534.665 c
    2165.837 534.665 2177.884 534.665 2177.884 534.665 c
    2177.884 534.665 2177.884 524.886 2177.884 524.886 c
    2177.884 524.886 2182.136 524.886 2182.136 524.886 c
    2182.136 524.886 2182.136 515.106 2182.136 515.106 c
    2182.136 515.106 2177.884 515.106 2177.884 515.106 c
    2177.884 515.106 2177.884 491.437 2177.884 491.437 c
    2177.884 491.437 2203.75 491.437 2203.75 491.437 c
    2203.75 491.437 2203.75 477.264 2203.75 477.264 c
    2203.75 477.264 2235.64 477.264 2235.64 477.264 c
    2235.64 477.264 2235.64 1086.712 2235.64 1086.712 c
    closepath
    /DeviceRGB setcolorspace
    0 0 1 setcolor
    0.1 setlinewidth
    1 setlinecap
    0 setlinejoin
    4 setmiterlimit
    [] 0 setdash
    stroke
  
  % Gruppe
   
   % back_outsideCutPath
     1143.996 307.266 m
     1143.996 307.266 1143.996 275.376 1143.996 275.376 c
     1143.996 275.376 1158.169 275.376 1158.169 275.376 c
     1158.169 275.376 1158.169 249.51 1158.169 249.51 c
     1158.169 249.51 1181.839 249.51 1181.839 249.51 c
     1181.839 249.51 1181.839 253.762 1181.839 253.762 c
     1181.839 253.762 1191.618 253.762 1191.618 253.762 c
     1191.618 253.762 1191.618 249.51 1191.618 249.51 c
     1191.618 249.51 1201.398 249.51 1201.398 249.51 c
     1201.398 249.51 1201.398 237.462 1201.398 237.462 c
     1201.398 237.462 1191.618 237.462 1191.618 237.462 c
     1191.618 237.462 1191.618 233.211 1191.618 233.211 c
     1191.618 233.211 1181.839 233.211 1181.839 233.211 c
     1181.839 233.211 1181.839 237.462 1181.839 237.462 c
     1181.839 237.462 1158.169 237.462 1158.169 237.462 c
     1158.169 237.462 1158.169 211.596 1158.169 211.596 c
     1158.169 211.596 1143.996 211.596 1143.996 211.596 c
     1143.996 211.596 1143.996 179.707 1143.996 179.707 c
     1143.996 179.707 1296.358 179.707 1296.358 179.707 c
     1296.358 179.707 1296.358 193.88 1296.358 193.88 c
     1296.358 193.88 1442.697 193.88 1442.697 193.88 c
     1442.697 193.88 1442.697 217.549 1442.697 217.549 c
     1442.697 217.549 1438.445 217.549 1438.445 217.549 c
     1438.445 217.549 1438.445 227.329 1438.445 227.329 c
     1438.445 227.329 1442.697 227.329 1442.697 227.329 c
     1442.697 227.329 1442.697 237.108 1442.697 237.108 c
     1442.697 237.108 1454.744 237.108 1454.744 237.108 c
     1454.744 237.108 1454.744 227.329 1454.744 227.329 c
     1454.744 227.329 1458.996 227.329 1458.996 227.329 c
     1458.996 227.329 1458.996 217.549 1458.996 217.549 c
     1458.996 217.549 1454.744 217.549 1454.744 217.549 c
     1454.744 217.549 1454.744 193.88 1454.744 193.88 c
     1454.744 193.88 1601.083 193.88 1601.083 193.88 c
     1601.083 193.88 1601.083 179.707 1601.083 179.707 c
     1601.083 179.707 1753.445 179.707 1753.445 179.707 c
     1753.445 179.707 1753.445 211.596 1753.445 211.596 c
     1753.445 211.596 1739.272 211.596 1739.272 211.596 c
     1739.272 211.596 1739.272 237.462 1739.272 237.462 c
     1739.272 237.462 1715.602 237.462 1715.602 237.462 c
     1715.602 237.462 1715.602 233.211 1715.602 233.211 c
     1715.602 233.211 1705.823 233.211 1705.823 233.211 c
     1705.823 233.211 1705.823 237.462 1705.823 237.462 c
     1705.823 237.462 1696.043 237.462 1696.043 237.462 c
     1696.043 237.462 1696.043 249.51 1696.043 249.51 c
     1696.043 249.51 1705.823 249.51 1705.823 249.51 c
     1705.823 249.51 1705.823 253.762 1705.823 253.762 c
     1705.823 253.762 1715.602 253.762 1715.602 253.762 c
     1715.602 253.762 1715.602 249.51 1715.602 249.51 c
     1715.602 249.51 1739.272 249.51 1739.272 249.51 c
     1739.272 249.51 1739.272 275.376 1739.272 275.376 c
     1739.272 275.376 1753.445 275.376 1753.445 275.376 c
     1753.445 275.376 1753.445 307.266 1753.445 307.266 c
     1753.445 307.266 1143.996 307.266 1143.996 307.266 c
     closepath
     /DeviceRGB setcolorspace
     0 0 1 setcolor
     0.1 setlinewidth
     1 setlinecap
     0 setlinejoin
     4 setmiterlimit
     [] 0 setdash
     stroke
   
   % Ellipse
     1717.549 279.779 m
     1717.549 275.889 1714.391 272.73 1710.5 272.73 c
     1706.61 272.73 1703.452 275.889 1703.452 279.779 c
     1703.452 283.669 1706.61 286.828 1710.5 286.828 c
     1714.391 286.828 1717.549 283.669 1717.549 279.779 c
     closepath
     /DeviceRGB setcolorspace
     0 0 1 setcolor
     0.1 setlinewidth
     1 setlinecap
     1 setlinejoin
     [] 0 setdash
     stroke
   
   % Ellipse
     1717.549 209.779 m
     1717.549 205.889 1714.391 202.73 1710.5 202.73 c
     1706.61 202.73 1703.452 205.889 1703.452 209.779 c
     1703.452 213.669 1706.61 216.828 1710.5 216.828 c
     1714.391 216.828 1717.549 213.669 1717.549 209.779 c
     closepath
     /DeviceRGB setcolorspace
     0 0 1 setcolor
     0.1 setlinewidth
     1 setlinecap
     1 setlinejoin
     [] 0 setdash
     stroke
   
   % Gruppe
    
    % Ellipse
      1194.549 279.779 m
      1194.549 275.889 1191.391 272.73 1187.5 272.73 c
      1183.61 272.73 1180.452 275.889 1180.452 279.779 c
      1180.452 283.669 1183.61 286.828 1187.5 286.828 c
      1191.391 286.828 1194.549 283.669 1194.549 279.779 c
      closepath
      /DeviceRGB setcolorspace
      0 0 1 setcolor
      0.1 setlinewidth
      1 setlinecap
      1 setlinejoin
      [] 0 setdash
      stroke
    
    % Ellipse
      1194.549 209.779 m
      1194.549 205.889 1191.391 202.73 1187.5 202.73 c
      1183.61 202.73 1180.452 205.889 1180.452 209.779 c
      1180.452 213.669 1183.61 216.828 1187.5 216.828 c
      1191.391 216.828 1194.549 213.669 1194.549 209.779 c
      closepath
      /DeviceRGB setcolorspace
      0 0 1 setcolor
      0.1 setlinewidth
      1 setlinecap
      1 setlinejoin
      [] 0 setdash
      stroke
  
  % Gruppe
   
   % Rechteck
     267.011 893.834 m
     267.011 893.834 267.011 661.393 267.011 661.393 c
     267.011 661.393 442.759 661.393 442.759 661.393 c
     442.759 661.393 442.759 893.834 442.759 893.834 c
     442.759 893.834 267.011 893.834 267.011 893.834 c
     closepath
     /DeviceRGB setcolorspace
     0 1 0 setcolor
     0.1 setlinewidth
     1 setlinecap
     1 setlinejoin
     [] 0 setdash
     stroke
   
   % Gruppe
    
    % Kurve
      337.637 736.669 m
      337.637 736.669 349.029 734.333 349.029 734.333 c
      349.029 734.333 349.029 732.893 349.029 732.893 c
      349.029 732.893 337.637 730.573 337.637 730.573 c
      337.637 730.573 337.637 732.301 337.637 732.301 c
      337.637 732.301 345.589 733.597 345.589 733.597 c
      345.589 733.597 345.589 733.629 345.589 733.629 c
      345.589 733.629 337.637 734.941 337.637 734.941 c
      337.637 734.941 337.637 736.669 337.637 736.669 c
      closepath
      /DeviceRGB setcolorspace
      0.502 0.502 0.502 setcolor
      fill
    
    % Kurve
      349.029 737.693 m
      349.029 737.693 337.637 737.693 337.637 737.693 c
      337.637 737.693 337.637 739.325 337.637 739.325 c
      337.637 739.325 349.029 739.325 349.029 739.325 c
      349.029 739.325 349.029 737.693 349.029 737.693 c
      closepath
      /DeviceRGB setcolorspace
      0.502 0.502 0.502 setcolor
      fill
    
    % Kurve
      345.781 746.093 m
      345.781 746.093 346.485 746.093 346.485 746.093 c
      346.837 746.093 347.17 746.026 347.485 745.893 c
      347.8 745.76 348.08 745.576 348.325 745.341 c
      348.57 745.106 348.765 744.832 348.909 744.517 c
      349.053 744.202 349.125 743.864 349.125 743.501 c
      349.125 743.192 349.082 742.877 348.997 742.557 c
      348.912 742.237 348.762 741.949 348.549 741.693 c
      348.336 741.437 348.061 741.226 347.725 741.061 c
      347.389 740.896 346.96 740.813 346.437 740.813 c
      346.437 740.813 340.165 740.813 340.165 740.813 c
      339.792 740.813 339.445 740.877 339.125 741.005 c
      338.805 741.133 338.528 741.314 338.293 741.549 c
      338.058 741.784 337.874 742.064 337.741 742.389 c
      337.608 742.714 337.541 743.074 337.541 743.469 c
      337.541 744.237 337.792 744.861 338.293 745.341 c
      338.538 745.576 338.829 745.76 339.165 745.893 c
      339.501 746.026 339.866 746.093 340.261 746.093 c
      340.261 746.093 340.901 746.093 340.901 746.093 c
      340.901 746.093 340.901 744.461 340.901 744.461 c
      340.901 744.461 340.357 744.461 340.357 744.461 c
      340.037 744.461 339.76 744.37 339.525 744.189 c
      339.29 744.008 339.173 743.762 339.173 743.453 c
      339.173 743.048 339.298 742.778 339.549 742.645 c
      339.8 742.512 340.117 742.445 340.501 742.445 c
      340.501 742.445 346.325 742.445 346.325 742.445 c
      346.656 742.445 346.933 742.517 347.157 742.661 c
      347.381 742.805 347.493 743.064 347.493 743.437 c
      347.493 743.544 347.474 743.658 347.437 743.781 c
      347.4 743.904 347.338 744.018 347.253 744.125 c
      347.168 744.221 347.05 744.301 346.901 744.365 c
      346.752 744.429 346.565 744.461 346.341 744.461 c
      346.341 744.461 345.781 744.461 345.781 744.461 c
      345.781 744.461 345.781 746.093 345.781 746.093 c
      closepath
      /DeviceRGB setcolorspace
      0.502 0.502 0.502 setcolor
      fill
    
    % Kurve
      349.029 748.493 m
      349.029 748.493 339.173 748.493 339.173 748.493 c
      339.173 748.493 339.173 746.605 339.173 746.605 c
      339.173 746.605 337.637 746.605 337.637 746.605 c
      337.637 746.605 337.637 752.013 337.637 752.013 c
      337.637 752.013 339.173 752.013 339.173 752.013 c
      339.173 752.013 339.173 750.125 339.173 750.125 c
      339.173 750.125 349.029 750.125 349.029 750.125 c
      349.029 750.125 349.029 748.493 349.029 748.493 c
      closepath
      /DeviceRGB setcolorspace
      0.502 0.502 0.502 setcolor
      fill
    
    % Kurven
      339.173 754.365 m
      339.173 754.365 342.725 754.365 342.725 754.365 c
      342.725 754.365 342.725 755.293 342.725 755.293 c
      342.725 755.581 342.685 755.81 342.605 755.981 c
      342.525 756.152 342.41 756.285 342.261 756.381 c
      342.112 756.466 341.928 756.525 341.709 756.557 c
      341.49 756.589 341.237 756.605 340.949 756.605 c
      340.661 756.605 340.408 756.589 340.189 756.557 c
      339.97 756.525 339.781 756.461 339.621 756.365 c
      339.322 756.162 339.173 755.778 339.173 755.213 c
      339.173 755.213 339.173 754.365 339.173 754.365 c
      closepath
      349.029 752.733 m
      349.029 752.733 337.637 752.733 337.637 752.733 c
      337.637 752.733 337.637 755.357 337.637 755.357 c
      337.637 757.277 338.752 758.237 340.981 758.237 c
      341.653 758.237 342.224 758.133 342.693 757.925 c
      343.162 757.717 343.541 757.352 343.829 756.829 c
      343.829 756.829 349.029 758.589 349.029 758.589 c
      349.029 758.589 349.029 756.861 349.029 756.861 c
      349.029 756.861 344.165 755.341 344.165 755.341 c
      344.165 755.341 344.165 754.365 344.165 754.365 c
      344.165 754.365 349.029 754.365 349.029 754.365 c
      349.029 754.365 349.029 752.733 349.029 752.733 c
      closepath
      /DeviceRGB setcolorspace
      0.502 0.502 0.502 setcolor
      fill
    
    % Kurven
      340.325 759.453 m
      339.866 759.453 339.461 759.533 339.109 759.693 c
      338.757 759.853 338.464 760.066 338.229 760.333 c
      338.005 760.589 337.834 760.88 337.717 761.205 c
      337.6 761.53 337.541 761.858 337.541 762.189 c
      337.541 762.52 337.6 762.848 337.717 763.173 c
      337.834 763.498 338.005 763.794 338.229 764.061 c
      338.464 764.317 338.757 764.525 339.109 764.685 c
      339.461 764.845 339.866 764.925 340.325 764.925 c
      340.325 764.925 346.341 764.925 346.341 764.925 c
      346.821 764.925 347.232 764.845 347.573 764.685 c
      347.914 764.525 348.197 764.317 348.421 764.061 c
      348.656 763.794 348.832 763.498 348.949 763.173 c
      349.066 762.848 349.125 762.52 349.125 762.189 c
      349.125 761.858 349.066 761.53 348.949 761.205 c
      348.832 760.88 348.656 760.589 348.421 760.333 c
      348.197 760.066 347.914 759.853 347.573 759.693 c
      347.232 759.533 346.821 759.453 346.341 759.453 c
      346.341 759.453 340.325 759.453 340.325 759.453 c
      closepath
      346.341 761.085 m
      346.736 761.085 347.026 761.194 347.213 761.413 c
      347.4 761.632 347.493 761.89 347.493 762.189 c
      347.493 762.488 347.4 762.746 347.213 762.965 c
      347.026 763.184 346.736 763.293 346.341 763.293 c
      346.341 763.293 340.325 763.293 340.325 763.293 c
      339.93 763.293 339.64 763.184 339.453 762.965 c
      339.266 762.746 339.173 762.488 339.173 762.189 c
      339.173 761.89 339.266 761.632 339.453 761.413 c
      339.64 761.194 339.93 761.085 340.325 761.085 c
      340.325 761.085 346.341 761.085 346.341 761.085 c
      closepath
      /DeviceRGB setcolorspace
      0.502 0.502 0.502 setcolor
      fill
    
    % Kurve
      349.029 766.301 m
      349.029 766.301 337.637 766.301 337.637 766.301 c
      337.637 766.301 337.637 767.869 337.637 767.869 c
      337.637 767.869 344.501 770.333 344.501 770.333 c
      344.501 770.333 344.501 770.365 344.501 770.365 c
      344.501 770.365 337.637 770.365 337.637 770.365 c
      337.637 770.365 337.637 771.997 337.637 771.997 c
      337.637 771.997 349.029 771.997 349.029 771.997 c
      349.029 771.997 349.029 770.461 349.029 770.461 c
      349.029 770.461 342.181 767.965 342.181 767.965 c
      342.181 767.965 342.181 767.933 342.181 767.933 c
      342.181 767.933 349.029 767.933 349.029 767.933 c
      349.029 767.933 349.029 766.301 349.029 766.301 c
      closepath
      /DeviceRGB setcolorspace
      0.502 0.502 0.502 setcolor
      fill
    
    % Kurven
      340.325 776.349 m
      339.866 776.349 339.461 776.429 339.109 776.589 c
      338.757 776.749 338.464 776.962 338.229 777.229 c
      338.005 777.485 337.834 777.776 337.717 778.101 c
      337.6 778.426 337.541 778.754 337.541 779.085 c
      337.541 779.416 337.6 779.744 337.717 780.069 c
      337.834 780.394 338.005 780.69 338.229 780.957 c
      338.464 781.213 338.757 781.421 339.109 781.581 c
      339.461 781.741 339.866 781.821 340.325 781.821 c
      340.325 781.821 346.341 781.821 346.341 781.821 c
      346.821 781.821 347.232 781.741 347.573 781.581 c
      347.914 781.421 348.197 781.213 348.421 780.957 c
      348.656 780.69 348.832 780.394 348.949 780.069 c
      349.066 779.744 349.125 779.416 349.125 779.085 c
      349.125 778.754 349.066 778.426 348.949 778.101 c
      348.832 777.776 348.656 777.485 348.421 777.229 c
      348.197 776.962 347.914 776.749 347.573 776.589 c
      347.232 776.429 346.821 776.349 346.341 776.349 c
      346.341 776.349 340.325 776.349 340.325 776.349 c
      closepath
      346.341 777.981 m
      346.736 777.981 347.026 778.09 347.213 778.309 c
      347.4 778.528 347.493 778.786 347.493 779.085 c
      347.493 779.384 347.4 779.642 347.213 779.861 c
      347.026 780.08 346.736 780.189 346.341 780.189 c
      346.341 780.189 340.325 780.189 340.325 780.189 c
      339.93 780.189 339.64 780.08 339.453 779.861 c
      339.266 779.642 339.173 779.384 339.173 779.085 c
      339.173 778.786 339.266 778.528 339.453 778.309 c
      339.64 778.09 339.93 777.981 340.325 777.981 c
      340.325 777.981 346.341 777.981 346.341 777.981 c
      closepath
      /DeviceRGB setcolorspace
      0.502 0.502 0.502 setcolor
      fill
    
    % Kurven
      339.173 784.893 m
      339.173 784.893 342.725 784.893 342.725 784.893 c
      342.725 784.893 342.725 785.821 342.725 785.821 c
      342.725 786.109 342.685 786.338 342.605 786.509 c
      342.525 786.68 342.41 786.813 342.261 786.909 c
      342.112 786.994 341.928 787.053 341.709 787.085 c
      341.49 787.117 341.237 787.133 340.949 787.133 c
      340.661 787.133 340.408 787.117 340.189 787.085 c
      339.97 787.053 339.781 786.989 339.621 786.893 c
      339.322 786.69 339.173 786.306 339.173 785.741 c
      339.173 785.741 339.173 784.893 339.173 784.893 c
      closepath
      349.029 783.261 m
      349.029 783.261 337.637 783.261 337.637 783.261 c
      337.637 783.261 337.637 785.885 337.637 785.885 c
      337.637 787.805 338.752 788.765 340.981 788.765 c
      341.653 788.765 342.224 788.661 342.693 788.453 c
      343.162 788.245 343.541 787.88 343.829 787.357 c
      343.829 787.357 349.029 789.117 349.029 789.117 c
      349.029 789.117 349.029 787.389 349.029 787.389 c
      349.029 787.389 344.165 785.869 344.165 785.869 c
      344.165 785.869 344.165 784.893 344.165 784.893 c
      344.165 784.893 349.029 784.893 349.029 784.893 c
      349.029 784.893 349.029 783.261 349.029 783.261 c
      closepath
      /DeviceRGB setcolorspace
      0.502 0.502 0.502 setcolor
      fill
    
    % Kurve
      349.029 790.125 m
      349.029 790.125 337.637 790.125 337.637 790.125 c
      337.637 790.125 337.637 791.757 337.637 791.757 c
      337.637 791.757 349.029 791.757 349.029 791.757 c
      349.029 791.757 349.029 790.125 349.029 790.125 c
      closepath
      /DeviceRGB setcolorspace
      0.502 0.502 0.502 setcolor
      fill
    
    % Kurven
      340.325 793.245 m
      339.866 793.245 339.461 793.325 339.109 793.485 c
      338.757 793.645 338.464 793.858 338.229 794.125 c
      338.005 794.381 337.834 794.672 337.717 794.997 c
      337.6 795.322 337.541 795.65 337.541 795.981 c
      337.541 796.312 337.6 796.64 337.717 796.965 c
      337.834 797.29 338.005 797.586 338.229 797.853 c
      338.464 798.109 338.757 798.317 339.109 798.477 c
      339.461 798.637 339.866 798.717 340.325 798.717 c
      340.325 798.717 346.341 798.717 346.341 798.717 c
      346.821 798.717 347.232 798.637 347.573 798.477 c
      347.914 798.317 348.197 798.109 348.421 797.853 c
      348.656 797.586 348.832 797.29 348.949 796.965 c
      349.066 796.64 349.125 796.312 349.125 795.981 c
      349.125 795.65 349.066 795.322 348.949 794.997 c
      348.832 794.672 348.656 794.381 348.421 794.125 c
      348.197 793.858 347.914 793.645 347.573 793.485 c
      347.232 793.325 346.821 793.245 346.341 793.245 c
      346.341 793.245 340.325 793.245 340.325 793.245 c
      closepath
      346.341 794.877 m
      346.736 794.877 347.026 794.986 347.213 795.205 c
      347.4 795.424 347.493 795.682 347.493 795.981 c
      347.493 796.28 347.4 796.538 347.213 796.757 c
      347.026 796.976 346.736 797.085 346.341 797.085 c
      346.341 797.085 340.325 797.085 340.325 797.085 c
      339.93 797.085 339.64 796.976 339.453 796.757 c
      339.266 796.538 339.173 796.28 339.173 795.981 c
      339.173 795.682 339.266 795.424 339.453 795.205 c
      339.64 794.986 339.93 794.877 340.325 794.877 c
      340.325 794.877 346.341 794.877 346.341 794.877 c
      closepath
      /DeviceRGB setcolorspace
      0.502 0.502 0.502 setcolor
      fill
    
    % Kurve
      349.029 800.093 m
      349.029 800.093 337.637 800.093 337.637 800.093 c
      337.637 800.093 337.637 801.661 337.637 801.661 c
      337.637 801.661 344.501 804.125 344.501 804.125 c
      344.501 804.125 344.501 804.157 344.501 804.157 c
      344.501 804.157 337.637 804.157 337.637 804.157 c
      337.637 804.157 337.637 805.789 337.637 805.789 c
      337.637 805.789 349.029 805.789 349.029 805.789 c
      349.029 805.789 349.029 804.253 349.029 804.253 c
      349.029 804.253 342.181 801.757 342.181 801.757 c
      342.181 801.757 342.181 801.725 342.181 801.725 c
      342.181 801.725 349.029 801.725 349.029 801.725 c
      349.029 801.725 349.029 800.093 349.029 800.093 c
      closepath
      /DeviceRGB setcolorspace
      0.502 0.502 0.502 setcolor
      fill
    
    % Kurve
      345.413 807.197 m
      345.413 807.197 343.781 807.197 343.781 807.197 c
      343.781 807.197 343.781 812.013 343.781 812.013 c
      343.781 812.013 345.413 812.013 345.413 812.013 c
      345.413 812.013 345.413 807.197 345.413 807.197 c
      closepath
      /DeviceRGB setcolorspace
      0.502 0.502 0.502 setcolor
      fill
    
    % Kurve
      349.029 814.557 m
      349.029 814.557 339.173 814.557 339.173 814.557 c
      339.173 814.557 339.173 812.669 339.173 812.669 c
      339.173 812.669 337.637 812.669 337.637 812.669 c
      337.637 812.669 337.637 818.077 337.637 818.077 c
      337.637 818.077 339.173 818.077 339.173 818.077 c
      339.173 818.077 339.173 816.189 339.173 816.189 c
      339.173 816.189 349.029 816.189 349.029 816.189 c
      349.029 816.189 349.029 814.557 349.029 814.557 c
      closepath
      /DeviceRGB setcolorspace
      0.502 0.502 0.502 setcolor
      fill
    
    % Kurven
      339.173 820.429 m
      339.173 820.429 342.725 820.429 342.725 820.429 c
      342.725 820.429 342.725 821.357 342.725 821.357 c
      342.725 821.645 342.685 821.874 342.605 822.045 c
      342.525 822.216 342.41 822.349 342.261 822.445 c
      342.112 822.53 341.928 822.589 341.709 822.621 c
      341.49 822.653 341.237 822.669 340.949 822.669 c
      340.661 822.669 340.408 822.653 340.189 822.621 c
      339.97 822.589 339.781 822.525 339.621 822.429 c
      339.322 822.226 339.173 821.842 339.173 821.277 c
      339.173 821.277 339.173 820.429 339.173 820.429 c
      closepath
      349.029 818.797 m
      349.029 818.797 337.637 818.797 337.637 818.797 c
      337.637 818.797 337.637 821.421 337.637 821.421 c
      337.637 823.341 338.752 824.301 340.981 824.301 c
      341.653 824.301 342.224 824.197 342.693 823.989 c
      343.162 823.781 343.541 823.416 343.829 822.893 c
      343.829 822.893 349.029 824.653 349.029 824.653 c
      349.029 824.653 349.029 822.925 349.029 822.925 c
      349.029 822.925 344.165 821.405 344.165 821.405 c
      344.165 821.405 344.165 820.429 344.165 820.429 c
      344.165 820.429 349.029 820.429 349.029 820.429 c
      349.029 820.429 349.029 818.797 349.029 818.797 c
      closepath
      /DeviceRGB setcolorspace
      0.502 0.502 0.502 setcolor
      fill
    
    % Kurve
      368.229 749.173 m
      368.229 749.173 366.693 749.173 366.693 749.173 c
      366.693 749.173 361.141 752.117 361.141 752.117 c
      360.864 752.266 360.621 752.352 360.413 752.373 c
      360.205 752.394 359.946 752.405 359.637 752.405 c
      359.498 752.405 359.352 752.402 359.197 752.397 c
      359.042 752.392 358.906 752.362 358.789 752.309 c
      358.672 752.256 358.573 752.176 358.493 752.069 c
      358.413 751.962 358.373 751.808 358.373 751.605 c
      358.373 751.36 358.442 751.165 358.581 751.021 c
      358.72 750.877 358.922 750.805 359.189 750.805 c
      359.189 750.805 360.117 750.805 360.117 750.805 c
      360.117 750.805 360.117 749.173 360.117 749.173 c
      360.117 749.173 359.221 749.173 359.221 749.173 c
      358.88 749.173 358.56 749.237 358.261 749.365 c
      357.962 749.493 357.701 749.669 357.477 749.893 c
      357.253 750.106 357.074 750.362 356.941 750.661 c
      356.808 750.96 356.741 751.28 356.741 751.621 c
      356.741 752.048 356.818 752.413 356.973 752.717 c
      357.128 753.021 357.338 753.274 357.605 753.477 c
      357.872 753.669 358.176 753.81 358.517 753.901 c
      358.858 753.992 359.221 754.037 359.605 754.037 c
      359.882 754.037 360.114 754.032 360.301 754.021 c
      360.488 754.01 360.666 753.989 360.837 753.957 c
      361.008 753.925 361.178 753.872 361.349 753.797 c
      361.52 753.722 361.728 753.621 361.973 753.493 c
      361.973 753.493 366.597 751.093 366.597 751.093 c
      366.597 751.093 366.597 754.037 366.597 754.037 c
      366.597 754.037 368.229 754.037 368.229 754.037 c
      368.229 754.037 368.229 749.173 368.229 749.173 c
      closepath
      /DeviceRGB setcolorspace
      0.502 0.502 0.502 setcolor
      fill
    
    % Kurve
      368.229 757.973 m
      368.229 757.973 366.533 757.973 366.533 757.973 c
      366.533 757.973 366.533 754.725 366.533 754.725 c
      366.533 754.725 364.997 754.725 364.997 754.725 c
      364.997 754.725 356.837 757.077 356.837 757.077 c
      356.837 757.077 356.837 758.805 356.837 758.805 c
      356.837 758.805 364.997 756.357 364.997 756.357 c
      364.997 756.357 364.997 757.973 364.997 757.973 c
      364.997 757.973 361.749 757.973 361.749 757.973 c
      361.749 757.973 361.749 759.605 361.749 759.605 c
      361.749 759.605 364.997 759.605 364.997 759.605 c
      364.997 759.605 364.997 760.389 364.997 760.389 c
      364.997 760.389 366.533 760.389 366.533 760.389 c
      366.533 760.389 366.533 759.605 366.533 759.605 c
      366.533 759.605 368.229 759.605 368.229 759.605 c
      368.229 759.605 368.229 757.973 368.229 757.973 c
      closepath
      /DeviceRGB setcolorspace
      0.502 0.502 0.502 setcolor
      fill
    
    % Kurve
      372.229 761.669 m
      372.229 761.669 356.229 761.669 356.229 761.669 c
      356.229 761.669 356.229 762.949 356.229 762.949 c
      356.229 762.949 372.229 762.949 372.229 762.949 c
      372.229 762.949 372.229 761.669 372.229 761.669 c
      closepath
      /DeviceRGB setcolorspace
      0.502 0.502 0.502 setcolor
      fill
    
    % Kurve
      368.229 766.565 m
      368.229 766.565 358.565 766.565 358.565 766.565 c
      358.565 766.565 359.765 764.933 359.765 764.933 c
      359.765 764.933 358.037 764.933 358.037 764.933 c
      358.037 764.933 356.837 766.565 356.837 766.565 c
      356.837 766.565 356.837 768.197 356.837 768.197 c
      356.837 768.197 368.229 768.197 368.229 768.197 c
      368.229 768.197 368.229 766.565 368.229 766.565 c
      closepath
      /DeviceRGB setcolorspace
      0.502 0.502 0.502 setcolor
      fill
    
    % Kurve
      368.229 770.581 m
      368.229 770.581 366.693 770.581 366.693 770.581 c
      366.693 770.581 361.141 773.525 361.141 773.525 c
      360.864 773.674 360.621 773.76 360.413 773.781 c
      360.205 773.802 359.946 773.813 359.637 773.813 c
      359.498 773.813 359.352 773.81 359.197 773.805 c
      359.042 773.8 358.906 773.77 358.789 773.717 c
      358.672 773.664 358.573 773.584 358.493 773.477 c
      358.413 773.37 358.373 773.216 358.373 773.013 c
      358.373 772.768 358.442 772.573 358.581 772.429 c
      358.72 772.285 358.922 772.213 359.189 772.213 c
      359.189 772.213 360.117 772.213 360.117 772.213 c
      360.117 772.213 360.117 770.581 360.117 770.581 c
      360.117 770.581 359.221 770.581 359.221 770.581 c
      358.88 770.581 358.56 770.645 358.261 770.773 c
      357.962 770.901 357.701 771.077 357.477 771.301 c
      357.253 771.514 357.074 771.77 356.941 772.069 c
      356.808 772.368 356.741 772.688 356.741 773.029 c
      356.741 773.456 356.818 773.821 356.973 774.125 c
      357.128 774.429 357.338 774.682 357.605 774.885 c
      357.872 775.077 358.176 775.218 358.517 775.309 c
      358.858 775.4 359.221 775.445 359.605 775.445 c
      359.882 775.445 360.114 775.44 360.301 775.429 c
      360.488 775.418 360.666 775.397 360.837 775.365 c
      361.008 775.333 361.178 775.28 361.349 775.205 c
      361.52 775.13 361.728 775.029 361.973 774.901 c
      361.973 774.901 366.597 772.501 366.597 772.501 c
      366.597 772.501 366.597 775.445 366.597 775.445 c
      366.597 775.445 368.229 775.445 368.229 775.445 c
      368.229 775.445 368.229 770.581 368.229 770.581 c
      closepath
      /DeviceRGB setcolorspace
      0.502 0.502 0.502 setcolor
      fill
    
    % Kurve
      364.613 779.669 m
      364.613 779.669 362.981 779.669 362.981 779.669 c
      362.981 779.669 362.981 784.485 362.981 784.485 c
      362.981 784.485 364.613 784.485 364.613 784.485 c
      364.613 784.485 364.613 779.669 364.613 779.669 c
      closepath
      /DeviceRGB setcolorspace
      0.502 0.502 0.502 setcolor
      fill
    
    % Kurve
      368.229 785.733 m
      368.229 785.733 366.693 785.733 366.693 785.733 c
      366.693 785.733 361.141 788.677 361.141 788.677 c
      360.864 788.826 360.621 788.912 360.413 788.933 c
      360.205 788.954 359.946 788.965 359.637 788.965 c
      359.498 788.965 359.352 788.962 359.197 788.957 c
      359.042 788.952 358.906 788.922 358.789 788.869 c
      358.672 788.816 358.573 788.736 358.493 788.629 c
      358.413 788.522 358.373 788.368 358.373 788.165 c
      358.373 787.92 358.442 787.725 358.581 787.581 c
      358.72 787.437 358.922 787.365 359.189 787.365 c
      359.189 787.365 360.117 787.365 360.117 787.365 c
      360.117 787.365 360.117 785.733 360.117 785.733 c
      360.117 785.733 359.221 785.733 359.221 785.733 c
      358.88 785.733 358.56 785.797 358.261 785.925 c
      357.962 786.053 357.701 786.229 357.477 786.453 c
      357.253 786.666 357.074 786.922 356.941 787.221 c
      356.808 787.52 356.741 787.84 356.741 788.181 c
      356.741 788.608 356.818 788.973 356.973 789.277 c
      357.128 789.581 357.338 789.834 357.605 790.037 c
      357.872 790.229 358.176 790.37 358.517 790.461 c
      358.858 790.552 359.221 790.597 359.605 790.597 c
      359.882 790.597 360.114 790.592 360.301 790.581 c
      360.488 790.57 360.666 790.549 360.837 790.517 c
      361.008 790.485 361.178 790.432 361.349 790.357 c
      361.52 790.282 361.728 790.181 361.973 790.053 c
      361.973 790.053 366.597 787.653 366.597 787.653 c
      366.597 787.653 366.597 790.597 366.597 790.597 c
      366.597 790.597 368.229 790.597 368.229 790.597 c
      368.229 790.597 368.229 785.733 368.229 785.733 c
      closepath
      /DeviceRGB setcolorspace
      0.502 0.502 0.502 setcolor
      fill
    
    % Kurven
      359.189 791.685 m
      358.805 791.685 358.464 791.752 358.165 791.885 c
      357.866 792.018 357.61 792.197 357.397 792.421 c
      357.184 792.645 357.021 792.904 356.909 793.197 c
      356.797 793.49 356.741 793.797 356.741 794.117 c
      356.741 794.437 356.797 794.744 356.909 795.037 c
      357.021 795.33 357.184 795.589 357.397 795.813 c
      357.61 796.037 357.866 796.216 358.165 796.349 c
      358.464 796.482 358.805 796.549 359.189 796.549 c
      359.189 796.549 365.877 796.549 365.877 796.549 c
      366.261 796.549 366.602 796.482 366.901 796.349 c
      367.2 796.216 367.456 796.037 367.669 795.813 c
      367.882 795.589 368.045 795.33 368.157 795.037 c
      368.269 794.744 368.325 794.437 368.325 794.117 c
      368.325 793.797 368.269 793.49 368.157 793.197 c
      368.045 792.904 367.882 792.645 367.669 792.421 c
      367.456 792.197 367.2 792.018 366.901 791.885 c
      366.602 791.752 366.261 791.685 365.877 791.685 c
      365.877 791.685 359.189 791.685 359.189 791.685 c
      closepath
      365.877 793.317 m
      366.112 793.317 366.306 793.392 366.461 793.541 c
      366.616 793.69 366.693 793.882 366.693 794.117 c
      366.693 794.352 366.616 794.544 366.461 794.693 c
      366.306 794.842 366.112 794.917 365.877 794.917 c
      365.877 794.917 359.189 794.917 359.189 794.917 c
      358.954 794.917 358.76 794.842 358.605 794.693 c
      358.45 794.544 358.373 794.352 358.373 794.117 c
      358.373 793.882 358.45 793.69 358.605 793.541 c
      358.76 793.392 358.954 793.317 359.189 793.317 c
      359.189 793.317 365.877 793.317 365.877 793.317 c
      closepath
      /DeviceRGB setcolorspace
      0.502 0.502 0.502 setcolor
      fill
    
    % Kurven
      364.245 804.133 m
      364.245 804.133 360.117 803.333 360.117 803.333 c
      360.117 803.333 360.117 803.301 360.117 803.301 c
      360.117 803.301 364.245 802.501 364.245 802.501 c
      364.245 802.501 364.245 804.133 364.245 804.133 c
      closepath
      368.229 800.101 m
      368.229 800.101 356.837 802.645 356.837 802.645 c
      356.837 802.645 356.837 804.005 356.837 804.005 c
      356.837 804.005 368.229 806.549 368.229 806.549 c
      368.229 806.549 368.229 804.917 368.229 804.917 c
      368.229 804.917 365.781 804.437 365.781 804.437 c
      365.781 804.437 365.781 802.213 365.781 802.213 c
      365.781 802.213 368.229 801.733 368.229 801.733 c
      368.229 801.733 368.229 800.101 368.229 800.101 c
      closepath
      /DeviceRGB setcolorspace
      0.502 0.502 0.502 setcolor
      fill
   
   % Ellipse
     442.759 899.503 m
     445.888 899.503 448.428 896.963 448.428 893.834 c
     448.428 890.705 445.888 888.164 442.759 888.164 c
     439.63 888.164 437.09 890.705 437.09 893.834 c
     437.09 896.963 439.63 899.503 442.759 899.503 c
     closepath
     /DeviceRGB setcolorspace
     0 0 1 setcolor
     0.1 setlinewidth
     1 setlinecap
     1 setlinejoin
     [] 0 setdash
     stroke
   
   % Ellipse
     442.759 667.062 m
     445.888 667.062 448.428 664.522 448.428 661.393 c
     448.428 658.264 445.888 655.723 442.759 655.723 c
     439.63 655.723 437.09 658.264 437.09 661.393 c
     437.09 664.522 439.63 667.062 442.759 667.062 c
     closepath
     /DeviceRGB setcolorspace
     0 0 1 setcolor
     0.1 setlinewidth
     1 setlinecap
     1 setlinejoin
     [] 0 setdash
     stroke
   
   % Ellipse
     267.011 667.062 m
     270.14 667.062 272.68 664.522 272.68 661.393 c
     272.68 658.264 270.14 655.723 267.011 655.723 c
     263.882 655.723 261.342 658.264 261.342 661.393 c
     261.342 664.522 263.882 667.062 267.011 667.062 c
     closepath
     /DeviceRGB setcolorspace
     0 0 1 setcolor
     0.1 setlinewidth
     1 setlinecap
     1 setlinejoin
     [] 0 setdash
     stroke
   
   % Ellipse
     267.011 899.503 m
     270.14 899.503 272.68 896.963 272.68 893.834 c
     272.68 890.705 270.14 888.164 267.011 888.164 c
     263.882 888.164 261.342 890.705 261.342 893.834 c
     261.342 896.963 263.882 899.503 267.011 899.503 c
     closepath
     /DeviceRGB setcolorspace
     0 0 1 setcolor
     0.1 setlinewidth
     1 setlinecap
     1 setlinejoin
     [] 0 setdash
     stroke
 
 % Incisione
  
  % breadboardbreadboard
   
   % Ellipse
     1197.007 698.293 m
     1199.753 698.293 1201.982 696.064 1201.982 693.319 c
     1201.982 690.574 1199.753 688.345 1197.007 688.345 c
     1194.262 688.345 1192.033 690.574 1192.033 693.319 c
     1192.033 696.064 1194.262 698.293 1197.007 698.293 c
     closepath
     /DeviceRGB setcolorspace
     0 0 1 setcolor
     0.1 setlinewidth
     1 setlinecap
     1 setlinejoin
     [] 0 setdash
     stroke
   
   % Ellipse
     1213.352 846.293 m
     1216.097 846.293 1218.326 844.064 1218.326 841.319 c
     1218.326 838.574 1216.097 836.345 1213.352 836.345 c
     1210.606 836.345 1208.377 838.574 1208.377 841.319 c
     1208.377 844.064 1210.606 846.293 1213.352 846.293 c
     closepath
     /DeviceRGB setcolorspace
     0 0 1 setcolor
     0.1 setlinewidth
     1 setlinecap
     1 setlinejoin
     [] 0 setdash
     stroke
   
   % Ellipse
     1289.908 846.293 m
     1292.653 846.293 1294.882 844.064 1294.882 841.319 c
     1294.882 838.574 1292.653 836.345 1289.908 836.345 c
     1287.163 836.345 1284.934 838.574 1284.934 841.319 c
     1284.934 844.064 1287.163 846.293 1289.908 846.293 c
     closepath
     /DeviceRGB setcolorspace
     0 0 1 setcolor
     0.1 setlinewidth
     1 setlinecap
     1 setlinejoin
     [] 0 setdash
     stroke
   
   % Ellipse
     1332.725 698.077 m
     1335.47 698.077 1337.699 695.848 1337.699 693.103 c
     1337.699 690.358 1335.47 688.129 1332.725 688.129 c
     1329.979 688.129 1327.751 690.358 1327.751 693.103 c
     1327.751 695.848 1329.979 698.077 1332.725 698.077 c
     closepath
     /DeviceRGB setcolorspace
     0 0 1 setcolor
     0.1 setlinewidth
     1 setlinecap
     1 setlinejoin
     [] 0 setdash
     stroke
   
   % Ellipse
     1332.725 929.368 m
     1335.47 929.368 1337.699 927.139 1337.699 924.394 c
     1337.699 921.648 1335.47 919.42 1332.725 919.42 c
     1329.979 919.42 1327.751 921.648 1327.751 924.394 c
     1327.751 927.139 1329.979 929.368 1332.725 929.368 c
     closepath
     /DeviceRGB setcolorspace
     0 0 1 setcolor
     0.1 setlinewidth
     1 setlinecap
     1 setlinejoin
     [] 0 setdash
     stroke
   
   % Ellipse
     1197.523 908.777 m
     1200.268 908.777 1202.497 906.549 1202.497 903.803 c
     1202.497 901.058 1200.268 898.829 1197.523 898.829 c
     1194.778 898.829 1192.549 901.058 1192.549 903.803 c
     1192.549 906.549 1194.778 908.777 1197.523 908.777 c
     closepath
     /DeviceRGB setcolorspace
     0 0 1 setcolor
     0.1 setlinewidth
     1 setlinecap
     1 setlinejoin
     [] 0 setdash
     stroke
 
 % Taglio
 grestore
showpage
end
/currentdistillerparams where
{pop currentdistillerparams /CoreDistVersion get 5000 lt} {true} ifelse
{userdict /EPSHandler1_pdfmark /cleartomark load put}
{ userdict /EPSHandler1_pdfmark /pdfmark load put} ifelse
[/EMC EPSHandler1_pdfmark
